%YAML 1.1
%TAG !u! tag:unity3d.com,2011:
--- !u!114 &11400000
MonoBehaviour:
  m_ObjectHideFlags: 0
  m_CorrespondingSourceObject: {fileID: 0}
  m_PrefabInstance: {fileID: 0}
  m_PrefabAsset: {fileID: 0}
  m_GameObject: {fileID: 0}
  m_Enabled: 1
  m_EditorHideFlags: 0
  m_Script: {fileID: 11500000, guid: 42e5c788ae1b09747815191c53720c24, type: 3}
  m_Name: Finish
  m_EditorClassIdentifier: 
  BlocksToDrop:
  - Offset: {x: 0, y: 0, z: 0}
    RotationEulers: {x: 0, y: 0, z: 0}
    Token: {fileID: 8831972426870042590, guid: 7f3441f3896157b4db79fcbf2a9bd659, type: 3}
