%YAML 1.1
%TAG !u! tag:unity3d.com,2011:
--- !u!114 &11400000
MonoBehaviour:
  m_ObjectHideFlags: 0
  m_CorrespondingSourceObject: {fileID: 0}
  m_PrefabInstance: {fileID: 0}
  m_PrefabAsset: {fileID: 0}
  m_GameObject: {fileID: 0}
  m_Enabled: 1
  m_EditorHideFlags: 0
  m_Script: {fileID: 11500000, guid: 42e5c788ae1b09747815191c53720c24, type: 3}
  m_Name: FloorCrackParr
  m_EditorClassIdentifier: 
  BlocksToDrop:
  - Offset: {x: 0, y: 0, z: 0}
    RotationEulers: {x: 0, y: 0, z: 0}
    Token: {fileID: 8230279622345193032, guid: 2377a8bacf0e1ef4faf9e7735abdde4c, type: 3}
  - Offset: {x: 0, y: 0, z: 10}
    RotationEulers: {x: 0, y: 0, z: 0}
    Token: {fileID: 5109376227901472954, guid: a402a47e27217134e94d4aa1025a3af9, type: 3}
  - Offset: {x: 0, y: 4.75, z: 10}
    RotationEulers: {x: 0, y: 0, z: 0}
    Token: {fileID: 5109376227901472954, guid: a402a47e27217134e94d4aa1025a3af9, type: 3}
  - Offset: {x: 0, y: 4.75, z: -10}
    RotationEulers: {x: 0, y: 180, z: 0}
    Token: {fileID: 5109376227901472954, guid: a402a47e27217134e94d4aa1025a3af9, type: 3}
