%YAML 1.1
%TAG !u! tag:unity3d.com,2011:
--- !u!1 &7410268766695697774
GameObject:
  m_ObjectHideFlags: 0
  m_CorrespondingSourceObject: {fileID: 0}
  m_PrefabInstance: {fileID: 0}
  m_PrefabAsset: {fileID: 0}
  serializedVersion: 6
  m_Component:
  - component: {fileID: 6082865312705367540}
  m_Layer: 0
  m_Name: Dungeon
  m_TagString: Untagged
  m_Icon: {fileID: 0}
  m_NavMeshLayer: 0
  m_StaticEditorFlags: 0
  m_IsActive: 1
--- !u!4 &6082865312705367540
Transform:
  m_ObjectHideFlags: 0
  m_CorrespondingSourceObject: {fileID: 0}
  m_PrefabInstance: {fileID: 0}
  m_PrefabAsset: {fileID: 0}
  m_GameObject: {fileID: 7410268766695697774}
  m_LocalRotation: {x: 0, y: 0, z: 0, w: 1}
  m_LocalPosition: {x: 5.0427666, y: 6.2235737, z: 7.005331}
  m_LocalScale: {x: 1, y: 1, z: 1}
  m_Children:
  - {fileID: 4485480335858865599}
  - {fileID: 4887775620361540709}
  m_Father: {fileID: 0}
  m_RootOrder: 0
  m_LocalEulerAnglesHint: {x: 0, y: 0, z: 0}
--- !u!1001 &1719070691685181862
PrefabInstance:
  m_ObjectHideFlags: 0
  serializedVersion: 2
  m_Modification:
    m_TransformParent: {fileID: 6082865312705367540}
    m_Modifications:
    - target: {fileID: 5109376227901472954, guid: a402a47e27217134e94d4aa1025a3af9,
        type: 3}
      propertyPath: m_Name
      value: LevelConstruction
      objectReference: {fileID: 0}
    - target: {fileID: 6057204781831224771, guid: a402a47e27217134e94d4aa1025a3af9,
        type: 3}
      propertyPath: m_LocalPosition.x
      value: 0
      objectReference: {fileID: 0}
    - target: {fileID: 6057204781831224771, guid: a402a47e27217134e94d4aa1025a3af9,
        type: 3}
      propertyPath: m_LocalPosition.y
      value: 0
      objectReference: {fileID: 0}
    - target: {fileID: 6057204781831224771, guid: a402a47e27217134e94d4aa1025a3af9,
        type: 3}
      propertyPath: m_LocalPosition.z
      value: 0
      objectReference: {fileID: 0}
    - target: {fileID: 6057204781831224771, guid: a402a47e27217134e94d4aa1025a3af9,
        type: 3}
      propertyPath: m_LocalRotation.x
      value: 0
      objectReference: {fileID: 0}
    - target: {fileID: 6057204781831224771, guid: a402a47e27217134e94d4aa1025a3af9,
        type: 3}
      propertyPath: m_LocalRotation.y
      value: 0
      objectReference: {fileID: 0}
    - target: {fileID: 6057204781831224771, guid: a402a47e27217134e94d4aa1025a3af9,
        type: 3}
      propertyPath: m_LocalRotation.z
      value: 0
      objectReference: {fileID: 0}
    - target: {fileID: 6057204781831224771, guid: a402a47e27217134e94d4aa1025a3af9,
        type: 3}
      propertyPath: m_LocalRotation.w
      value: 1
      objectReference: {fileID: 0}
    - target: {fileID: 6057204781831224771, guid: a402a47e27217134e94d4aa1025a3af9,
        type: 3}
      propertyPath: m_RootOrder
      value: 1
      objectReference: {fileID: 0}
    - target: {fileID: 6057204781831224771, guid: a402a47e27217134e94d4aa1025a3af9,
        type: 3}
      propertyPath: m_LocalEulerAnglesHint.x
      value: 0
      objectReference: {fileID: 0}
    - target: {fileID: 6057204781831224771, guid: a402a47e27217134e94d4aa1025a3af9,
        type: 3}
      propertyPath: m_LocalEulerAnglesHint.y
      value: 0
      objectReference: {fileID: 0}
    - target: {fileID: 6057204781831224771, guid: a402a47e27217134e94d4aa1025a3af9,
        type: 3}
      propertyPath: m_LocalEulerAnglesHint.z
      value: 0
      objectReference: {fileID: 0}
    m_RemovedComponents: []
  m_SourcePrefab: {fileID: 100100000, guid: a402a47e27217134e94d4aa1025a3af9, type: 3}
--- !u!4 &4887775620361540709 stripped
Transform:
  m_CorrespondingSourceObject: {fileID: 6057204781831224771, guid: a402a47e27217134e94d4aa1025a3af9,
    type: 3}
  m_PrefabInstance: {fileID: 1719070691685181862}
  m_PrefabAsset: {fileID: 0}
--- !u!1001 &3489984253065724163
PrefabInstance:
  m_ObjectHideFlags: 0
  serializedVersion: 2
  m_Modification:
    m_TransformParent: {fileID: 6082865312705367540}
    m_Modifications:
    - target: {fileID: 5532364866849362591, guid: e86dd29f203b6d74b98930fceedfd393,
        type: 3}
      propertyPath: m_Name
      value: End
      objectReference: {fileID: 0}
    - target: {fileID: 1031687936437818556, guid: e86dd29f203b6d74b98930fceedfd393,
        type: 3}
      propertyPath: m_LocalPosition.x
      value: 0
      objectReference: {fileID: 0}
    - target: {fileID: 1031687936437818556, guid: e86dd29f203b6d74b98930fceedfd393,
        type: 3}
      propertyPath: m_LocalPosition.y
      value: 0
      objectReference: {fileID: 0}
    - target: {fileID: 1031687936437818556, guid: e86dd29f203b6d74b98930fceedfd393,
        type: 3}
      propertyPath: m_LocalPosition.z
      value: -10
      objectReference: {fileID: 0}
    - target: {fileID: 1031687936437818556, guid: e86dd29f203b6d74b98930fceedfd393,
        type: 3}
      propertyPath: m_LocalRotation.x
      value: 0
      objectReference: {fileID: 0}
    - target: {fileID: 1031687936437818556, guid: e86dd29f203b6d74b98930fceedfd393,
        type: 3}
      propertyPath: m_LocalRotation.y
      value: 1
      objectReference: {fileID: 0}
    - target: {fileID: 1031687936437818556, guid: e86dd29f203b6d74b98930fceedfd393,
        type: 3}
      propertyPath: m_LocalRotation.z
      value: 0
      objectReference: {fileID: 0}
    - target: {fileID: 1031687936437818556, guid: e86dd29f203b6d74b98930fceedfd393,
        type: 3}
      propertyPath: m_LocalRotation.w
      value: 0
      objectReference: {fileID: 0}
    - target: {fileID: 1031687936437818556, guid: e86dd29f203b6d74b98930fceedfd393,
        type: 3}
      propertyPath: m_RootOrder
      value: 0
      objectReference: {fileID: 0}
    - target: {fileID: 1031687936437818556, guid: e86dd29f203b6d74b98930fceedfd393,
        type: 3}
      propertyPath: m_LocalEulerAnglesHint.x
      value: 0
      objectReference: {fileID: 0}
    - target: {fileID: 1031687936437818556, guid: e86dd29f203b6d74b98930fceedfd393,
        type: 3}
      propertyPath: m_LocalEulerAnglesHint.y
      value: 180
      objectReference: {fileID: 0}
    - target: {fileID: 1031687936437818556, guid: e86dd29f203b6d74b98930fceedfd393,
        type: 3}
      propertyPath: m_LocalEulerAnglesHint.z
      value: 0
      objectReference: {fileID: 0}
    m_RemovedComponents: []
  m_SourcePrefab: {fileID: 100100000, guid: e86dd29f203b6d74b98930fceedfd393, type: 3}
--- !u!4 &4485480335858865599 stripped
Transform:
  m_CorrespondingSourceObject: {fileID: 1031687936437818556, guid: e86dd29f203b6d74b98930fceedfd393,
    type: 3}
  m_PrefabInstance: {fileID: 3489984253065724163}
  m_PrefabAsset: {fileID: 0}
